^C:\USERS\ALEKSANDER\DESKTOP\PROJEKTY\SEMESTR_2\PROJEKT_PROG\PROJECT1\PROJECT1\MAIN.CPP
C:\USERS\ALEKSANDER\DESKTOP\PROJEKTY\SEMESTR_2\PROJEKT_PROG\PROJECT1\PROJECT1\DEBUG\VC141.PDB
C:\USERS\ALEKSANDER\DESKTOP\PROJEKTY\SEMESTR_2\PROJEKT_PROG\PROJECT1\PROJECT1\DEBUG\VC141.IDB
C:\USERS\ALEKSANDER\DESKTOP\PROJEKTY\SEMESTR_2\PROJEKT_PROG\PROJECT1\PROJECT1\DEBUG\MAIN.OBJ
